Analyses
…
Interestingly, lme4 throws a warning, likely because there is too
little variance across waves, while little variation measure itself.
Let’s inspect the raw means.

soc_med_tw_m <- d_long_imp %>% group_by(wave) %>% summarise(value = mean(soc_med_tw, na.rm = T))
soc_med_tw_m

## # A tibble: 24 × 2
##     wave  value
##    <dbl>  <dbl>
##  1     1   1.26
##  2     2   1.27
##  3     3   1.26
##  4     4 NaN   
##  5     5   1.17
##  6     6   1.39
##  7     7   1.37
##  8     8   1.29
##  9     9   1.16
## 10    10   1.25
## # … with 14 more rows
…
